{
  "type": "minecraft:crafting_shaped",
  "pattern": [
    "TTT",
    "TUT",
    "TTT"
  ],
  "key": {
    "U": {
      "item": "swordmod:uranium_block"
    },
    "T": {
      "item": "minecraft:tnt"
    }
  },
  "result": {
    "item": "swordmod:atomic_bomb"
  }
}