{
    "type": "minecraft:crafting_shaped",
    "pattern": [
      " T ",
      " C ",
      " S "
    ],
    "key": {
      "S": {
        "item": "minecraft:stick"
      },
      "C": {
        "item": "minecraft:cobblestone"
      },
      "T": {
        "item": "minecraft:tnt"
      }
    },
    "result": {
      "item": "minecraft:explosive_arrow"
    }
}