{
  "type": "minecraft:crafting_shaped",
  "pattern": [
    "OOO",
    " I ",
    " I "
  ],
  "key": {
    "O": {
      "item": "minecraft:obsidian"
    },
    "I": {
      "item": "minecraft:iron_ingot"
    }
  },
  "result": {
    "item": "swordmod:obsidian_pickaxe"
  }
}