{
  "type": "minecraft:crafting_shaped",
  "pattern": [
    "UUU",
    "UUU",
    "UUU"
  ],
  "key": {
    "U": {
      "item": "swordmod:uranium_ingot"
    }
  },
  "result": {
    "item": "swordmod:uranium_block"
  }
}